{
    "apps" : [{
        "name"            : "paygenie-api",
        "script"          : "build/server.js",
        "instances"       : "max",
        "exec_mode"       : "cluster",
        "listen_timeout"  : 34000
    }]
}